{   "usePSSysregAsRegistrator":false, 
    "useGorillaMuxRouter":false,
    "useGinGonicRouter":true,
    "ImportFromSys": "EPSE",
    "FTPHostName": "epse.rz.wdr.de",
    "FTPHostPort": "21",
    "FTPUsr": "pressespiegel_export",
    "FTPPwd": "tensi2006",
    "FTPDeleteDataFromServerAfterFetch": true,
    "ImportWorkDir": "/epsFileSys/Workdir",
    "DataDonePath": "/epsFileSys/DataDonePath",
    "QueryXMLFileName": "query.xml",
    "DB_UserPwd": "root:123",
    "DB_SQLApplschemaName": "pressespiegel",
    "LocationLogs":"/epsFileSys/LogsMeta",
    "LogOnlyErrors":false,
    "SkipFTPAndReadDataWorkDir":true,
    "TriggerBuildMeldungImages":true,
    "AlwaysLogImportActivate":true  ,
    "AlwaysLogExecQueryArticle":true,
    "AnonymUsrDefaultAccessInterval":30,
    "CreateDatabase" :false,
    "StrictTokenValidateOn":true
}
